{
  "albums" : {
    "href" : "https://api.spotify.com/v1/search?query=gatan&offset=1&limit=1&type=album",
    "items" : [ {
      "album_type" : "single",
      "external_urls" : {
        "spotify" : "https://open.spotify.com/album/5CCjGmIH483h4J9UvME0eR"
      },
      "href" : "https://api.spotify.com/v1/albums/5CCjGmIH483h4J9UvME0eR",
      "id" : "5CCjGmIH483h4J9UvME0eR",
      "images" : [ {
        "height" : 640,
        "url" : "https://d3rt1990lpmkn.cloudfront.net/original/743f134a97aa904f90674be6f304db28c8be91f7",
        "width" : 640
      }, {
        "height" : 300,
        "url" : "https://d3rt1990lpmkn.cloudfront.net/original/09ff1e1144cc297d42acaaa839e0ad422ba7abe5",
        "width" : 300
      }, {
        "height" : 64,
        "url" : "https://d3rt1990lpmkn.cloudfront.net/original/66d320404c8f56bb7dd0c53da61f794a70a7e07c",
        "width" : 64
      } ],
      "name" : "Lyckliga gatan",
      "type" : "album",
      "uri" : "spotify:album:5CCjGmIH483h4J9UvME0eR"
    } ],
    "limit" : 1,
    "next" : "https://api.spotify.com/v1/search?query=gatan&offset=2&limit=1&type=album",
    "offset" : 1,
    "previous" : "https://api.spotify.com/v1/search?query=gatan&offset=0&limit=1&type=album",
    "total" : 17
  }
}
