{
  "items" : [ {
    "external_urls" : {
      "spotify" : "https://open.spotify.com/artist/6J6yx1t3nwIDyPXk5xa7O8"
    },
    "followers" : {
      "href" : null,
      "total" : null
    },
    "genres" : [ ],
    "href" : "https://api.spotify.com/v1/artists/6J6yx1t3nwIDyPXk5xa7O8",
    "id" : "6J6yx1t3nwIDyPXk5xa7O8",
    "images" : [ {
      "height" : 563,
      "url" : "https://i.scdn.co/image/85c7a46805712da40280ebe7ab095142c40fc053",
      "width" : 1000
    }, {
      "height" : 360,
      "url" : "https://i.scdn.co/image/8825bbd51658f2e5b6dfe29aafd56c9d6e74131d",
      "width" : 640
    }, {
      "height" : 113,
      "url" : "https://i.scdn.co/image/2994fde9ed3ac3511f3da11293c47b45e02926a0",
      "width" : 200
    }, {
      "height" : 36,
      "url" : "https://i.scdn.co/image/38a8d956352a0a255f4bea90aa0c0a00d46cd07d",
      "width" : 64
    } ],
    "name" : "Vetusta Morla",
    "popularity" : 64,
    "type" : "artist",
    "uri" : "spotify:artist:6J6yx1t3nwIDyPXk5xa7O8"
  }, {
    "external_urls" : {
      "spotify" : "https://open.spotify.com/artist/3bgsNtcf5d5h9jbQbohfBK"
    },
    "followers" : {
      "href" : null,
      "total" : null
    },
    "genres" : [ ],
    "href" : "https://api.spotify.com/v1/artists/3bgsNtcf5d5h9jbQbohfBK",
    "id" : "3bgsNtcf5d5h9jbQbohfBK",
    "images" : [ {
      "height" : 480,
      "url" : "https://i.scdn.co/image/b606d5e5ec99288277aa3466880f54060ff66cef",
      "width" : 640
    }, {
      "height" : 150,
      "url" : "https://i.scdn.co/image/4e24afd44d8f59006d382bc7a49252fb2ea06c8f",
      "width" : 200
    }, {
      "height" : 48,
      "url" : "https://i.scdn.co/image/2a647ff503020a5aa11de8802dccda5955889a32",
      "width" : 64
    } ],
    "name" : "Extremoduro",
    "popularity" : 63,
    "type" : "artist",
    "uri" : "spotify:artist:3bgsNtcf5d5h9jbQbohfBK"
  }, {
    "external_urls" : {
      "spotify" : "https://open.spotify.com/artist/61C3cEhdoJ9YiQSQSwYB4K"
    },
    "followers" : {
      "href" : null,
      "total" : null
    },
    "genres" : [ ],
    "href" : "https://api.spotify.com/v1/artists/61C3cEhdoJ9YiQSQSwYB4K",
    "id" : "61C3cEhdoJ9YiQSQSwYB4K",
    "images" : [ {
      "height" : 1000,
      "url" : "https://i.scdn.co/image/3ad300c354b155c2e1b2b128a1adb0102daf18c2",
      "width" : 1000
    }, {
      "height" : 640,
      "url" : "https://i.scdn.co/image/04cea48c8f166ab5620c1378058af9d7f82d7f3c",
      "width" : 640
    }, {
      "height" : 200,
      "url" : "https://i.scdn.co/image/0cf094441a8c30252153085859979a1e51a3529c",
      "width" : 200
    }, {
      "height" : 64,
      "url" : "https://i.scdn.co/image/e7136999a1ea1ba77dbec6872b095cf6658b7d2a",
      "width" : 64
    } ],
    "name" : "Supersubmarina",
    "popularity" : 61,
    "type" : "artist",
    "uri" : "spotify:artist:61C3cEhdoJ9YiQSQSwYB4K"
  }, {
    "external_urls" : {
      "spotify" : "https://open.spotify.com/artist/6mfK6Q2tzLMEchAr0e9Uzu"
    },
    "followers" : {
      "href" : null,
      "total" : null
    },
    "genres" : [ ],
    "href" : "https://api.spotify.com/v1/artists/6mfK6Q2tzLMEchAr0e9Uzu",
    "id" : "6mfK6Q2tzLMEchAr0e9Uzu",
    "images" : [ {
      "height" : 480,
      "url" : "https://i.scdn.co/image/82b46784f513d02e0ceed3ddf1451be1a0b4a556",
      "width" : 640
    }, {
      "height" : 150,
      "url" : "https://i.scdn.co/image/115c3e5e03db67f82776104a7ab8faa4b5007288",
      "width" : 200
    }, {
      "height" : 48,
      "url" : "https://i.scdn.co/image/5f0182d4c08b989e5d5943900ebcdb386b539502",
      "width" : 64
    } ],
    "name" : "Pereza",
    "popularity" : 61,
    "type" : "artist",
    "uri" : "spotify:artist:6mfK6Q2tzLMEchAr0e9Uzu"
  }, {
    "external_urls" : {
      "spotify" : "https://open.spotify.com/artist/6VCoG3MG7ZKRxDjaYOvtrF"
    },
    "followers" : {
      "href" : null,
      "total" : null
    },
    "genres" : [ ],
    "href" : "https://api.spotify.com/v1/artists/6VCoG3MG7ZKRxDjaYOvtrF",
    "id" : "6VCoG3MG7ZKRxDjaYOvtrF",
    "images" : [ {
      "height" : 563,
      "url" : "https://i.scdn.co/image/5dd60cf14352b2dd28d06ba88ff63a0b2a68a5a4",
      "width" : 1000
    }, {
      "height" : 360,
      "url" : "https://i.scdn.co/image/86b30c52e36ee20a7016f80ecb11914283057199",
      "width" : 640
    }, {
      "height" : 113,
      "url" : "https://i.scdn.co/image/fb6edbe5c2593c6e84fbb655d2f7bbc1a9e75427",
      "width" : 200
    }, {
      "height" : 36,
      "url" : "https://i.scdn.co/image/15f59169f3491bb49055f6d462d12dc8c7d49391",
      "width" : 64
    } ],
    "name" : "Love of Lesbian",
    "popularity" : 67,
    "type" : "artist",
    "uri" : "spotify:artist:6VCoG3MG7ZKRxDjaYOvtrF"
  } ],
  "total" : 50,
  "limit" : 5,
  "offset" : 0,
  "href" : "https://api.spotify.com/v1/me/top/artists?limit=5",
  "previous" : null,
  "next" : "https://api.spotify.com/v1/me/top/artists?limit=5&offset=5"
}
