{
  "shows": {
    "href": "https://api.spotify.com/v1/search?query=sweden&type=show&offset=0&limit=1",
    "items": [
      {
        "available_markets": [
          "AD",
          "AE",
          "AR",
          "AT",
          "AU",
          "BE",
          "BG",
          "BH",
          "BO",
          "BR",
          "CA",
          "CH",
          "CL",
          "CO",
          "CR",
          "CY",
          "CZ",
          "DE",
          "DK",
          "DO",
          "DZ",
          "EC",
          "EE",
          "ES",
          "FI",
          "FR",
          "GB",
          "GR",
          "GT",
          "HK",
          "HN",
          "HU",
          "ID",
          "IE",
          "IL",
          "IN",
          "IS",
          "IT",
          "JO",
          "JP",
          "KW",
          "LB",
          "LI",
          "LT",
          "LU",
          "LV",
          "MA",
          "MC",
          "MT",
          "MX",
          "MY",
          "NI",
          "NL",
          "NO",
          "NZ",
          "OM",
          "PA",
          "PE",
          "PH",
          "PL",
          "PS",
          "PT",
          "PY",
          "QA",
          "RO",
          "SE",
          "SG",
          "SK",
          "SV",
          "TH",
          "TN",
          "TR",
          "TW",
          "US",
          "UY",
          "VN",
          "ZA"
        ],
        "copyrights": [],
        "description": "Nyheter på lätt svenska för dig som är ny i Sverige. Ansvarig utgivare: Klas Wolf-Watz",
        "explicit": false,
        "external_urls": {
          "spotify": "https://open.spotify.com/show/7qV2tMPbnZu18p2h0w6vvR"
        },
        "href": "https://api.spotify.com/v1/shows/7qV2tMPbnZu18p2h0w6vvR",
        "id": "7qV2tMPbnZu18p2h0w6vvR",
        "images": [
          {
            "height": 640,
            "url": "https://i.scdn.co/image/29126c05d08eac150b0e9a4cc61f13885c555ff1",
            "width": 640
          },
          {
            "height": 300,
            "url": "https://i.scdn.co/image/1ec0eba6e85fb1bc30221fe10092488111533a15",
            "width": 300
          },
          {
            "height": 64,
            "url": "https://i.scdn.co/image/8870c75630935db5290d2162245b611f0fb40b14",
            "width": 64
          }
        ],
        "is_externally_hosted": false,
        "languages": ["sv"],
        "media_type": "audio",
        "name": "Radio Sweden på lätt svenska",
        "publisher": "Sveriges Radio",
        "type": "show",
        "uri": "spotify:show:7qV2tMPbnZu18p2h0w6vvR"
      }
    ],
    "limit": 1,
    "next": "https://api.spotify.com/v1/search?query=sweden&type=show&offset=1&limit=1",
    "offset": 0,
    "previous": null,
    "total": 198
  }
}
