{
  "items" : [ {
    "album" : {
      "album_type" : "ALBUM",
      "external_urls" : {
        "spotify" : "https://open.spotify.com/album/1GYJUlbVr5FuNU7awwMGzu"
      },
      "href" : "https://api.spotify.com/v1/albums/1GYJUlbVr5FuNU7awwMGzu",
      "id" : "1GYJUlbVr5FuNU7awwMGzu",
      "images" : [ {
        "height" : 640,
        "url" : "https://i.scdn.co/image/f04389d964fbf82f01ac142b3dff73962e00214e",
        "width" : 640
      }, {
        "height" : 300,
        "url" : "https://i.scdn.co/image/9e07d674397310e8873fb54303ae622f90cd1556",
        "width" : 300
      }, {
        "height" : 64,
        "url" : "https://i.scdn.co/image/3081b6247b809ac8466e71513b19be750da6063c",
        "width" : 64
      } ],
      "name" : "La ley innata",
      "type" : "album",
      "uri" : "spotify:album:1GYJUlbVr5FuNU7awwMGzu"
    },
    "artists" : [ {
      "external_urls" : {
        "spotify" : "https://open.spotify.com/artist/3bgsNtcf5d5h9jbQbohfBK"
      },
      "href" : "https://api.spotify.com/v1/artists/3bgsNtcf5d5h9jbQbohfBK",
      "id" : "3bgsNtcf5d5h9jbQbohfBK",
      "name" : "Extremoduro",
      "type" : "artist",
      "uri" : "spotify:artist:3bgsNtcf5d5h9jbQbohfBK"
    } ],
    "disc_number" : 1,
    "duration_ms" : 462013,
    "explicit" : false,
    "external_ids" : {
      "isrc" : "ES5150800589"
    },
    "external_urls" : {
      "spotify" : "https://open.spotify.com/track/1aDeaDooAd79p2sdImGG4a"
    },
    "href" : "https://api.spotify.com/v1/tracks/1aDeaDooAd79p2sdImGG4a",
    "id" : "1aDeaDooAd79p2sdImGG4a",
    "is_playable" : true,
    "name" : "Dulce introduccion al caos",
    "popularity" : 52,
    "preview_url" : "https://p.scdn.co/mp3-preview/ee5cac4bf374a9c1fc188957870818e89ace9e8e",
    "track_number" : 1,
    "type" : "track",
    "uri" : "spotify:track:1aDeaDooAd79p2sdImGG4a"
  }, {
    "album" : {
      "album_type" : "ALBUM",
      "external_urls" : {
        "spotify" : "https://open.spotify.com/album/5QHJB2blBbAL8BjrD9hrhG"
      },
      "href" : "https://api.spotify.com/v1/albums/5QHJB2blBbAL8BjrD9hrhG",
      "id" : "5QHJB2blBbAL8BjrD9hrhG",
      "images" : [ {
        "height" : 637,
        "url" : "https://i.scdn.co/image/e69a081f833086461a85b9ed07cf688dd19b53b2",
        "width" : 640
      }, {
        "height" : 299,
        "url" : "https://i.scdn.co/image/d3c047a066a1ea2e22b617df83fd2aff683b7735",
        "width" : 300
      }, {
        "height" : 64,
        "url" : "https://i.scdn.co/image/f05bd6a5f6579a0a928b52ed0118b12fd8a0a28e",
        "width" : 64
      } ],
      "name" : "Canciones Prohibidas",
      "type" : "album",
      "uri" : "spotify:album:5QHJB2blBbAL8BjrD9hrhG"
    },
    "artists" : [ {
      "external_urls" : {
        "spotify" : "https://open.spotify.com/artist/3bgsNtcf5d5h9jbQbohfBK"
      },
      "href" : "https://api.spotify.com/v1/artists/3bgsNtcf5d5h9jbQbohfBK",
      "id" : "3bgsNtcf5d5h9jbQbohfBK",
      "name" : "Extremoduro",
      "type" : "artist",
      "uri" : "spotify:artist:3bgsNtcf5d5h9jbQbohfBK"
    } ],
    "disc_number" : 1,
    "duration_ms" : 318986,
    "explicit" : false,
    "external_ids" : {
      "isrc" : "ES5019814000"
    },
    "external_urls" : {
      "spotify" : "https://open.spotify.com/track/4z2EeFUp5Lhai9qhHtA6IF"
    },
    "href" : "https://api.spotify.com/v1/tracks/4z2EeFUp5Lhai9qhHtA6IF",
    "id" : "4z2EeFUp5Lhai9qhHtA6IF",
    "is_playable" : true,
    "name" : "Salir",
    "popularity" : 51,
    "preview_url" : "https://p.scdn.co/mp3-preview/2f59c92f21040e96f82572015e2de557f58d6af7",
    "track_number" : 1,
    "type" : "track",
    "uri" : "spotify:track:4z2EeFUp5Lhai9qhHtA6IF"
  }, {
    "album" : {
      "album_type" : "ALBUM",
      "external_urls" : {
        "spotify" : "https://open.spotify.com/album/7dNZmdcPLsUh929GLnvvsU"
      },
      "href" : "https://api.spotify.com/v1/albums/7dNZmdcPLsUh929GLnvvsU",
      "id" : "7dNZmdcPLsUh929GLnvvsU",
      "images" : [ {
        "height" : 640,
        "url" : "https://i.scdn.co/image/698b40a4946892822ee7f0bb5bedff7c6b080a05",
        "width" : 640
      }, {
        "height" : 300,
        "url" : "https://i.scdn.co/image/e5f36092d85e53cba2302e33c5148d7670654bcb",
        "width" : 300
      }, {
        "height" : 64,
        "url" : "https://i.scdn.co/image/601e2416c08b335741705df457a0c04f7969d14b",
        "width" : 64
      } ],
      "name" : "15151 (En Directo)",
      "type" : "album",
      "uri" : "spotify:album:7dNZmdcPLsUh929GLnvvsU"
    },
    "artists" : [ {
      "external_urls" : {
        "spotify" : "https://open.spotify.com/artist/6J6yx1t3nwIDyPXk5xa7O8"
      },
      "href" : "https://api.spotify.com/v1/artists/6J6yx1t3nwIDyPXk5xa7O8",
      "id" : "6J6yx1t3nwIDyPXk5xa7O8",
      "name" : "Vetusta Morla",
      "type" : "artist",
      "uri" : "spotify:artist:6J6yx1t3nwIDyPXk5xa7O8"
    } ],
    "disc_number" : 1,
    "duration_ms" : 236650,
    "explicit" : false,
    "external_ids" : {
      "isrc" : "ES55Z1060050"
    },
    "external_urls" : {
      "spotify" : "https://open.spotify.com/track/20Z8eduNdbyQyBNn7xAB72"
    },
    "href" : "https://api.spotify.com/v1/tracks/20Z8eduNdbyQyBNn7xAB72",
    "id" : "20Z8eduNdbyQyBNn7xAB72",
    "is_playable" : true,
    "name" : "La Deriva - En Directo",
    "popularity" : 44,
    "preview_url" : "https://p.scdn.co/mp3-preview/617066a1319b8c6bca31688231f60041b4f28ed0",
    "track_number" : 1,
    "type" : "track",
    "uri" : "spotify:track:20Z8eduNdbyQyBNn7xAB72"
  }, {
    "album" : {
      "album_type" : "ALBUM",
      "external_urls" : {
        "spotify" : "https://open.spotify.com/album/01Jkf7OzOSC8qVbTQzJEMp"
      },
      "href" : "https://api.spotify.com/v1/albums/01Jkf7OzOSC8qVbTQzJEMp",
      "id" : "01Jkf7OzOSC8qVbTQzJEMp",
      "images" : [ {
        "height" : 640,
        "url" : "https://i.scdn.co/image/de0bcae8f078a886ba7d280138c5a723c984bbbd",
        "width" : 640
      }, {
        "height" : 300,
        "url" : "https://i.scdn.co/image/d22d2d47b1e29e02530f5d7549471f6526ae8ee0",
        "width" : 300
      }, {
        "height" : 64,
        "url" : "https://i.scdn.co/image/8cb9168ea2f2ae41451f595ead4c0553da191d39",
        "width" : 64
      } ],
      "name" : "La Deriva",
      "type" : "album",
      "uri" : "spotify:album:01Jkf7OzOSC8qVbTQzJEMp"
    },
    "artists" : [ {
      "external_urls" : {
        "spotify" : "https://open.spotify.com/artist/6J6yx1t3nwIDyPXk5xa7O8"
      },
      "href" : "https://api.spotify.com/v1/artists/6J6yx1t3nwIDyPXk5xa7O8",
      "id" : "6J6yx1t3nwIDyPXk5xa7O8",
      "name" : "Vetusta Morla",
      "type" : "artist",
      "uri" : "spotify:artist:6J6yx1t3nwIDyPXk5xa7O8"
    } ],
    "disc_number" : 1,
    "duration_ms" : 228258,
    "explicit" : false,
    "external_ids" : {
      "isrc" : "ES55C1060102"
    },
    "external_urls" : {
      "spotify" : "https://open.spotify.com/track/4Wgx9SRbKwhL65eMsDPdmR"
    },
    "href" : "https://api.spotify.com/v1/tracks/4Wgx9SRbKwhL65eMsDPdmR",
    "id" : "4Wgx9SRbKwhL65eMsDPdmR",
    "is_playable" : true,
    "name" : "Golpe Maestro",
    "popularity" : 50,
    "preview_url" : "https://p.scdn.co/mp3-preview/e0fddb0715749d0daf4668e13252585abfdb5c6d",
    "track_number" : 2,
    "type" : "track",
    "uri" : "spotify:track:4Wgx9SRbKwhL65eMsDPdmR"
  }, {
    "album" : {
      "album_type" : "SINGLE",
      "external_urls" : {
        "spotify" : "https://open.spotify.com/album/4T0PFSo6B3zBzcb6oQi9Sj"
      },
      "href" : "https://api.spotify.com/v1/albums/4T0PFSo6B3zBzcb6oQi9Sj",
      "id" : "4T0PFSo6B3zBzcb6oQi9Sj",
      "images" : [ {
        "height" : 640,
        "url" : "https://i.scdn.co/image/7299d7f23b013fd5f0572bdc43726053534488d9",
        "width" : 640
      }, {
        "height" : 300,
        "url" : "https://i.scdn.co/image/d28691fd84f2a512d06e95716bcea557d6e2b992",
        "width" : 300
      }, {
        "height" : 64,
        "url" : "https://i.scdn.co/image/96413c6265810b94278aa4e54dcce87a7e18a135",
        "width" : 64
      } ],
      "name" : "Puntos Suspensivos / Profetas de la Mañana",
      "type" : "album",
      "uri" : "spotify:album:4T0PFSo6B3zBzcb6oQi9Sj"
    },
    "artists" : [ {
      "external_urls" : {
        "spotify" : "https://open.spotify.com/artist/6J6yx1t3nwIDyPXk5xa7O8"
      },
      "href" : "https://api.spotify.com/v1/artists/6J6yx1t3nwIDyPXk5xa7O8",
      "id" : "6J6yx1t3nwIDyPXk5xa7O8",
      "name" : "Vetusta Morla",
      "type" : "artist",
      "uri" : "spotify:artist:6J6yx1t3nwIDyPXk5xa7O8"
    } ],
    "disc_number" : 1,
    "duration_ms" : 195696,
    "explicit" : false,
    "external_ids" : {
      "isrc" : "ES55C1060117"
    },
    "external_urls" : {
      "spotify" : "https://open.spotify.com/track/60ovquXFpaYpKkzJBgk2dv"
    },
    "href" : "https://api.spotify.com/v1/tracks/60ovquXFpaYpKkzJBgk2dv",
    "id" : "60ovquXFpaYpKkzJBgk2dv",
    "is_playable" : true,
    "name" : "Puntos Suspensivos",
    "popularity" : 52,
    "preview_url" : "https://p.scdn.co/mp3-preview/6d793acff2e5a86f87a8ed1092f45f5dfa34b3ab",
    "track_number" : 1,
    "type" : "track",
    "uri" : "spotify:track:60ovquXFpaYpKkzJBgk2dv"
  } ],
  "total" : 50,
  "limit" : 5,
  "offset" : 0,
  "previous" : null,
  "href" : "https://api.spotify.com/v1/me/top/tracks?limit=5",
  "next" : "https://api.spotify.com/v1/me/top/tracks?limit=5&offset=5"
}
