{
  "href": "https://api.spotify.com/v1/me/shows?offset=0&limit=2",
  "items": [
    {
      "added_at": "2018-01-02T14:54:51Z",
      "show": {
        "available_markets": [
          "AD",
          "AE",
          "AR",
          "AT",
          "AU",
          "BE",
          "BG",
          "BH",
          "BO",
          "BR",
          "CA",
          "CH",
          "CL",
          "CO",
          "CR",
          "CY",
          "CZ",
          "DE",
          "DK",
          "DO",
          "DZ",
          "EC",
          "EE",
          "ES",
          "FI",
          "FR",
          "GB",
          "GR",
          "GT",
          "HK",
          "HN",
          "HU",
          "ID",
          "IE",
          "IL",
          "IN",
          "IS",
          "IT",
          "JO",
          "JP",
          "KW",
          "LB",
          "LI",
          "LT",
          "LU",
          "LV",
          "MA",
          "MC",
          "MT",
          "MX",
          "MY",
          "NI",
          "NL",
          "NO",
          "NZ",
          "OM",
          "PA",
          "PE",
          "PH",
          "PL",
          "PS",
          "PT",
          "PY",
          "QA",
          "RO",
          "SE",
          "SG",
          "SK",
          "SV",
          "TH",
          "TN",
          "TR",
          "TW",
          "US",
          "UY",
          "VN",
          "ZA"
        ],
        "copyrights": [],
        "description": "The Pursuit Podcast offers advice and new perspectives on getting things done in tech through half hour conversations with tech's great thinkers each week.   Want to learn to code? Land that great new job? Learn about how to manage your new reports? We've got you covered. This weekly podcast and carefully curated resources aims to leave you inspired and prepared to tackle that cool new thing.",
        "explicit": false,
        "external_urls": {
          "spotify": "https://open.spotify.com/show/3eVlgrnLC9fDRyTZMtTg88"
        },
        "href": "https://api.spotify.com/v1/shows/3eVlgrnLC9fDRyTZMtTg88",
        "id": "3eVlgrnLC9fDRyTZMtTg88",
        "images": [
          {
            "height": 640,
            "url": "https://i.scdn.co/image/bdec05f63cd6494bccaa78298398fa3162583fbb",
            "width": 640
          },
          {
            "height": 300,
            "url": "https://i.scdn.co/image/8bba6753054f68fff159e58da25ed9c48d3c1f09",
            "width": 300
          },
          {
            "height": 64,
            "url": "https://i.scdn.co/image/21658e432e9f5784339972e75dd49df9cbae6148",
            "width": 64
          }
        ],
        "is_externally_hosted": false,
        "languages": ["en-GB"],
        "media_type": "audio",
        "name": "Pursuit Podcast",
        "publisher": "Jessica Rose",
        "type": "show",
        "uri": "spotify:show:3eVlgrnLC9fDRyTZMtTg88"
      }
    },
    {
      "added_at": "2016-12-23T15:49:01Z",
      "show": {
        "available_markets": [
          "AD",
          "AE",
          "AR",
          "AT",
          "AU",
          "BE",
          "BG",
          "BH",
          "BO",
          "BR",
          "CA",
          "CH",
          "CL",
          "CO",
          "CR",
          "CY",
          "CZ",
          "DE",
          "DK",
          "DO",
          "DZ",
          "EC",
          "EE",
          "ES",
          "FI",
          "FR",
          "GB",
          "GR",
          "GT",
          "HK",
          "HN",
          "HU",
          "ID",
          "IE",
          "IL",
          "IN",
          "IS",
          "IT",
          "JO",
          "JP",
          "KW",
          "LB",
          "LI",
          "LT",
          "LU",
          "LV",
          "MA",
          "MC",
          "MT",
          "MX",
          "MY",
          "NI",
          "NL",
          "NO",
          "NZ",
          "OM",
          "PA",
          "PE",
          "PH",
          "PL",
          "PS",
          "PT",
          "PY",
          "QA",
          "RO",
          "SE",
          "SG",
          "SK",
          "SV",
          "TH",
          "TN",
          "TR",
          "TW",
          "US",
          "UY",
          "VN",
          "ZA"
        ],
        "copyrights": [],
        "description": "A weekly conversation that looks at the way technology is changing our economies, societies and daily lives. Hosted by John Thornhill, innovation editor at the Financial Times.",
        "explicit": false,
        "external_urls": {
          "spotify": "https://open.spotify.com/show/0euILJ8WEEmIG7UeZi1VtM"
        },
        "href": "https://api.spotify.com/v1/shows/0euILJ8WEEmIG7UeZi1VtM",
        "id": "0euILJ8WEEmIG7UeZi1VtM",
        "images": [
          {
            "height": 640,
            "url": "https://i.scdn.co/image/f9629d2802f2a0d4d9a4f8390fdf33275b55e885",
            "width": 640
          },
          {
            "height": 300,
            "url": "https://i.scdn.co/image/5cfe9c4bfc53649cd4ee3ddee58e6377d2a321cb",
            "width": 300
          },
          {
            "height": 64,
            "url": "https://i.scdn.co/image/0d7ff6bd0bcb145a1560b0e2b3f5eaf71dbf239c",
            "width": 64
          }
        ],
        "is_externally_hosted": false,
        "languages": ["en"],
        "media_type": "audio",
        "name": "FT Tech Tonic",
        "publisher": "Financial Times",
        "type": "show",
        "uri": "spotify:show:0euILJ8WEEmIG7UeZi1VtM"
      }
    }
  ],
  "limit": 2,
  "next": "https://api.spotify.com/v1/me/shows?offset=2&limit=2",
  "offset": 0,
  "previous": null,
  "total": 4
}
